<svg width="21" height="21" viewBox="0 0 21 21" fill="none" xmlns="http://www.w3.org/2000/svg">
<circle cx="10.2466" cy="10.0626" r="9.5" stroke="#48BB78"/>
<path d="M12.1753 10.2234L10.2467 12.1519L8.31815 10.2234" stroke="#48BB78" stroke-width="1.125" stroke-linecap="round" stroke-linejoin="round"/>
<path d="M10.2466 11.8841L10.2466 7.97334" stroke="#48BB78" stroke-width="1.125" stroke-linecap="round" stroke-linejoin="round"/>
</svg>
